[gd_scene load_steps=4 format=1]

[ext_resource path="res://scenes/over/sign/sign.png" type="Texture" id=1]

[sub_resource type="RectangleShape2D" id=1]

custom_solver_bias = 0.0
extents = Vector2( 19, 19 )

[sub_resource type="GDScript" id=2]

script/source = "\nextends StaticBody2D\n\n# member variables here, example:\n# var a=2\n# var b=\"textvar\"\nexport(String) var text\n\nfunc _ready():\n\t# Called every time the node is added to the scene.\n\t# Initialization here\n\tget_node(\"gui/window/text\").set_bbcode( tr(text) )\n\tpass\n\n\nfunc trigger( player ):\n\tget_node(\"gui/window\").popup_centered()"

[node name="sign" type="StaticBody2D" groups=[ "trigger" ]]

input/pickable = false
shapes/0/shape = SubResource( 1 )
shapes/0/transform = Matrix32( 1, 0, 0, 1, 0, 0 )
shapes/0/trigger = false
collision/layers = 1
collision/mask = 1
constant_linear_velocity = Vector2( 0, 0 )
constant_angular_velocity = 0.0
friction = 1.0
bounce = 0.0
script/script = SubResource( 2 )
text = null

[node name="sprite" type="Sprite" parent="."]

texture = ExtResource( 1 )

[node name="CollisionShape2D" type="CollisionShape2D" parent="."]

shape = SubResource( 1 )
trigger = false
_update_shape_index = 0

[node name="gui" type="CanvasLayer" parent="."]

layer = 1
offset = Vector2( 0, 0 )
rotation = 0.0
scale = Vector2( 1, 1 )

[node name="window" type="AcceptDialog" parent="gui"]

visibility/visible = false
focus/ignore_mouse = false
focus/stop_mouse = true
size_flags/horizontal = 2
size_flags/vertical = 2
margin/left = -32.0
margin/top = -32.0
margin/right = 200.0
margin/bottom = 128.0
popup/exclusive = false
window/title = "Tip !"
dialog/hide_on_ok = true

[node name="text" type="RichTextLabel" parent="gui/window"]

focus/ignore_mouse = false
focus/stop_mouse = true
size_flags/horizontal = 2
size_flags/vertical = 2
margin/left = 8.0
margin/top = 8.0
margin/right = 224.0
margin/bottom = 128.0
bbcode/enabled = true
bbcode/bbcode = ""
visible_characters = -1


