[gd_scene load_steps=4 format=1]

[ext_resource path="res://scenes/over/items/coin.png" type="Texture" id=1]
[ext_resource path="res://assets/common/img/death.png" type="Texture" id=2]

[sub_resource type="GDScript" id=1]

script/source = "\nextends ItemList\n\n# member variables here, example:\n# var a=2\n# var b=\"textvar\"\n\nfunc _ready():\n\t# Called every time the node is added to the scene.\n\t# Initialization here\n\trewrite()\n\tconnect(\"item_selected\", self, \"_on_item_selected\")\n\tpass\n\t\nfunc rewrite():\n\tclear()\n\tfor i in range(0, get_node(\"/root/persistent\").NB_LEVELS) :\n\t\tvar level_name = \"Stage \"  + str(i)\n\t\tif i == 0 : level_name = \"Tutorial\"\n\t\tadd_item(level_name, null, get_node(\"/root/persistent\").levels[i][\"done\"])\n\tget_node(\"../coin/label\").set_hidden(true)\n\tget_node(\"../death/label\").set_hidden(true)\n\t\t\nfunc _on_item_selected( idx ):\n\tif is_item_selectable(idx):\n\t\tvar level = get_node(\"/root/persistent\").levels[idx]\n\t\tget_node(\"../coin/label\").set_text( str(level[\"coins_collected\"]) + \"/\" + str(level[\"total_coins\"]) )\n\t\tget_node(\"../death/label\").set_text( str(level[\"nb_death\"]) )\n\t\tget_node(\"../coin/label\").set_hidden(false)\n\t\tget_node(\"../death/label\").set_hidden(false)\n\telse :\n\t\tget_node(\"../coin/label\").set_hidden(true)\n\t\tget_node(\"../death/label\").set_hidden(true) "

[node name="scores" type="WindowDialog"]

focus/ignore_mouse = false
focus/stop_mouse = true
size_flags/horizontal = 2
size_flags/vertical = 2
margin/left = 160.0
margin/top = 104.0
margin/right = 520.0
margin/bottom = 336.0
popup/exclusive = false
window/title = ""

[node name="list" type="ItemList" parent="."]

focus/ignore_mouse = false
focus/stop_mouse = true
size_flags/horizontal = 2
size_flags/vertical = 2
margin/left = 16.0
margin/top = 8.0
margin/right = 160.0
margin/bottom = 216.0
script/script = SubResource( 1 )

[node name="coin" type="Sprite" parent="."]

transform/pos = Vector2( 208, 24 )
texture = ExtResource( 1 )

[node name="label" type="Label" parent="coin"]

focus/ignore_mouse = true
focus/stop_mouse = true
size_flags/horizontal = 2
size_flags/vertical = 0
margin/left = 24.0
margin/top = -8.0
margin/right = 96.0
margin/bottom = 6.0
percent_visible = 1.0
lines_skipped = 0
max_lines_visible = -1

[node name="death" type="Sprite" parent="."]

transform/pos = Vector2( 208, 64 )
texture = ExtResource( 2 )

[node name="label" type="Label" parent="death"]

focus/ignore_mouse = true
focus/stop_mouse = true
size_flags/horizontal = 2
size_flags/vertical = 0
margin/left = 24.0
margin/top = -8.0
margin/right = 96.0
margin/bottom = 6.0
percent_visible = 1.0
lines_skipped = 0
max_lines_visible = -1

[connection signal="about_to_show" from="." to="list" method="rewrite"]


