[gd_resource type="TileSet" load_steps=9 format=1]

[ext_resource path="res://scenes/tileset/rocks.png" type="Texture" id=1]
[ext_resource path="res://scenes/tileset/plaque.png" type="Texture" id=2]
[ext_resource path="res://scenes/tileset/trap.png" type="Texture" id=3]

[sub_resource type="OccluderPolygon2D" id=1]

closed = true
cull_mode = 0
polygon = Vector2Array( -5, -16, -5, 16, 4, 16, 4, -16 )

[sub_resource type="RectangleShape2D" id=2]

custom_solver_bias = 0.0
extents = Vector2( 16, 16 )

[sub_resource type="OccluderPolygon2D" id=3]

closed = true
cull_mode = 0
polygon = Vector2Array( -16, -16, -16, 16, 16, 16, 16, -16 )

[sub_resource type="ConvexPolygonShape2D" id=4]

custom_solver_bias = 0.0
points = Vector2Array( 16, -16, 16, 16, -16, 16, -16, -16 )

[sub_resource type="OccluderPolygon2D" id=5]

closed = true
cull_mode = 0
polygon = Vector2Array( -16, -4, 16, -4, 16, 5, -16, 5 )

[resource]

0/name = "1"
0/texture = ExtResource( 1 )
0/tex_offset = Vector2( 0, 0 )
0/region = Rect2( 0, 0, 32, 32 )
0/occluder_offset = Vector2( 16, 16 )
0/navigation_offset = Vector2( 16, 16 )
0/shape_offset = Vector2( 0, 0 )
0/shapes = [  ]
1/name = "occluder_v"
1/texture = ExtResource( 2 )
1/tex_offset = Vector2( 0, 0 )
1/region = Rect2( 0, 0, 32, 32 )
1/occluder_offset = Vector2( 16, 16 )
1/occluder = SubResource( 1 )
1/navigation_offset = Vector2( 16, 16 )
1/shape_offset = Vector2( 16, 16 )
1/shapes = [ SubResource( 2 ) ]
2/name = "3"
2/texture = ExtResource( 2 )
2/tex_offset = Vector2( 0, 0 )
2/region = Rect2( 0, 0, 32, 32 )
2/occluder_offset = Vector2( 16, 16 )
2/occluder = SubResource( 3 )
2/navigation_offset = Vector2( 16, 16 )
2/shape_offset = Vector2( 16, 16 )
2/shapes = [ SubResource( 4 ) ]
3/name = "4"
3/texture = ExtResource( 3 )
3/tex_offset = Vector2( 0, 0 )
3/region = Rect2( 0, 0, 32, 32 )
3/occluder_offset = Vector2( 16, 16 )
3/navigation_offset = Vector2( 16, 16 )
3/shape_offset = Vector2( 0, 0 )
3/shapes = [  ]
4/name = "occluder_h"
4/texture = ExtResource( 2 )
4/tex_offset = Vector2( 0, 0 )
4/region = Rect2( 0, 0, 32, 32 )
4/occluder_offset = Vector2( 16, 16 )
4/occluder = SubResource( 5 )
4/navigation_offset = Vector2( 16, 16 )
4/shape_offset = Vector2( 16, 16 )
4/shapes = [ SubResource( 2 ) ]
5/name = "no_occluder"
5/texture = ExtResource( 2 )
5/tex_offset = Vector2( 0, 0 )
5/region = Rect2( 0, 0, 32, 32 )
5/occluder_offset = Vector2( 16, 16 )
5/navigation_offset = Vector2( 16, 16 )
5/shape_offset = Vector2( 16, 16 )
5/shapes = [ SubResource( 2 ) ]

